{
  "page": 1,
  "results": [
    {
      "_id": "5256cff619c2956ff60a2ce2",
      "air_date": "2013-10-15",
      "episode_number": 5,
      "name": "The Workplace Proximity",
      "id": 64782,
      "season_number": 7,
      "still_path": null,
      "show_id": 1418,
      "vote_average": 8.5,
      "vote_count": 3,
      "rating": 8
    }
  ],
  "total_pages": 2,
  "total_results": 21
}
